{
  "APP": {
    "TLS": false,
    "status": "development"
  },
  "SERVER": {
    "allowedDomain": "http://localhost:5174",
    "_comment": "separate headers by comma ex: \"http://ex.com, http://ex2.com\"",
    "allowedHeaders": "*"
  },
  "DIRS": {
    "app": "/opt/data/src/kegi",
    "store": "/Users/saidtaylan/kegiStore/backend",
    "images": "images",
    "logs": "logs"
  },
  "AUTH": {
    "accessTokenExpirationMinutes": "1320",
    "refreshTokenExirationDays": 30,
    "verificationTokenExpirationHours": 24
  },
  "EMAIL": {
    "user": "saidtaylann@gmail.com",
    "password": "zqpekjklxesacrik",
    "port": "587",
    "host": "smtp.gmail.com",
    "secure": false
  },
  "ENCRYPTION": {
    "BCRYPT_SALT_ROUND": 10
  }
}
